{
  "type": "service_account",
  "project_id": "ktp-citizen",
  "private_key_id": "35c66eace0effff29b999cd08efe8bc2460f3739",
  "private_key": "-----BEGIN PRIVATE KEY-----\nMIIEvgIBADANBgkqhkiG9w0BAQEFAASCBKgwggSkAgEAAoIBAQC6x385mEanTcIm\nV8yYDYfNlSVzCPaIBNFU9e/9E4qKFHMdFJQ6AV1KBzujcqhuLelx7K4bB/FY3Jyf\nG5TSBrH8RxEaf9OhBTgpE8eKN6oj3IPckuLf1w6zMy3dGCmkZM7PWHrCxspgDdHq\n9DddaoABdQFcq1nXBiKOw551w6HS6mGWPOsRPfhaAZc2IgCVPUy7X/HkCc8weIZK\nrw+jGpaQkOnd3LLOt+5i4sU9YTBLvB0EkxBfEGIDvMz0JmE6OKAQ2axVa1JF38WX\nCXapkKzFSJq5e2R44MpMrvt8rTHGNV+N1NG6kpc2IXZJyHLmeAb+sOI+a3K4qKup\noWg1xXYRAgMBAAECggEARQD3C7wqPh0IIUpGl9ZH2bfEQh+JlO7St2S06PaTNDgh\n3xh/On7OjE7nxZbSiwIDQMeD+xCQJZg7dLyn2oAGuYE33GZlNRPMj8By86lk/iK1\nxIOvtaqqD6JUy13l5IoprYiusc7nbV0ttHPNEIIMEH29pxLW+g2WLtAudqtz2YuD\nYTNMSAbCQiWQ6kXPiiMu9/6y/LR4P70qByiprPB38QbRC9PTrBOP5nvTPgXXKetZ\nBeUCSruP4oJhxSrYObti/Ol5PT/h4vmhr+PKogdD4oIVAZw+RWnDY7W3DxDtr9n3\nSAQYPVTJwQ0QsdUP3WMF7EmOC6O0Ja1dqNt7Xc56wQKBgQDyGhia3sPocEOEfC1U\nQtxRNvtMcOnXDe+Hv/UY9fgm3I3i+YBoUEyvpgd0LDWXDNSUMVxWtm+ex6TV0YBF\nwEyySLuA4JRtiVMbjzjLbQIJHhMKlslRWSOqgUZhVKKvCq9kU4XBYUycmNnNUXMQ\nULot98Wk71/a5mHCvt7uXNU2FQKBgQDFgGKYZgrOpS/vn/V/9PeIvhAyoVthhuyI\nlUVv9LbKiGu5AKU1pPS9d+wBEkIrqrmoXNBfvxDlbY1z3MYxa5adt77cVu0mF2Zs\nmto+JLnihjMoTyy502Y+6B0qEk1z4SAmF4zvmUtRS7WE3Qkyg5wQGZNfQep61gZr\nfpqtAiebDQKBgQCSJ4brF8iVLhDUjlKfJ63xqYuT3iaNGXCdNxkz9GnWrBdMCuum\nDbP95fFiBL5lbe13eUURZBmGdWfhXRRfB3RFvPrVFr8EUX7GiHP0+t3buzgrkFQA\ntBt/94MRhxKfMYgovPNmhuLFNtFlzeH024dJ8OZ0Z74qXCJweuICbDCa8QKBgQCU\nhMYf+mRYH0pb9TsFXS6kCuFdYY+5WGAZGb9cwHaQ+WOgfIbAP2q37C1yZMuT0M/K\ndvlPdvv6u5ZqsXPtCA38TofdZBTz1xbzxsMlhjKu0OI5hsiIeRtjZONBlv/di0bE\nvmMCbpF/8eHvptRawzOhu8niEUyF0NqFDXC9d2hXJQKBgBZhn5UPX9O/VaoIf/PP\nFSslDNu8k/rmAm/r93xlA3MoW7i/8Jl6L0gIExwOrREQuqg/bV7zVaS2jCGYXaEq\nZ3vubtUchCEx/aDFOw8OuUq1YU97LHKKbGPGPjdBghkXVQDvE8HlXbLbBz+pDSTS\ny/y9Y+8KDUq1RfE4iwTd5FSO\n-----END PRIVATE KEY-----\n",
  "client_email": "ktpdemo@ktp-citizen.iam.gserviceaccount.com",
  "client_id": "101599191593106528678",
  "auth_uri": "https://accounts.google.com/o/oauth2/auth",
  "token_uri": "https://accounts.google.com/o/oauth2/token",
  "auth_provider_x509_cert_url": "https://www.googleapis.com/oauth2/v1/certs",
  "client_x509_cert_url": "https://www.googleapis.com/robot/v1/metadata/x509/ktpdemo%40ktp-citizen.iam.gserviceaccount.com"
}
