<?xml version="1.0" encoding="utf-8" ?>
<kml xmlns="http://www.opengis.net/kml/2.2">
<Document id="root_doc">
<Schema name="All_Pandal_Points" id="All_Pandal_Points">
	<SimpleField name="descriptio" type="string"></SimpleField>
</Schema>
<Folder><name>All_Pandal_Points</name>
  <Placemark>
	<name>KUMARTULI PARK</name>
	<ExtendedData><SchemaData schemaUrl="#All_Pandal_Points">
		<SimpleData name="descriptio">&lt;img src=&quot;https://lh6.googleusercontent.com/wKX7ncsiOWWPSfgIa6qva7j_ZL3NJ5aUaVdBWQepZdGTH3JAttEmKV_lSVe7o7gJCZjI3PeU2YCBQCrqumEx3oEQCTv2t8Rcr7D5bt5iH8rleay8O5r21YTQjkRcrF9e&quot; height=&quot;200&quot; width=&quot;auto&quot; /&gt;&lt;br&gt;&lt;br&gt;&lt;br&gt;&lt;br&gt;&lt;img src=&quot;https://lh4.googleusercont</SimpleData>
	</SchemaData></ExtendedData>
      <Point><altitudeMode>clampToGround</altitudeMode><coordinates>88.3615619,22.5989263,0</coordinates></Point>
  </Placemark>
  <Placemark>
	<name>SINGHI PARK</name>
	<ExtendedData><SchemaData schemaUrl="#All_Pandal_Points">
		<SimpleData name="descriptio">&lt;img src=&quot;https://lh3.googleusercontent.com/g-9gtPAH76ZtgQMnxMBWauy7c3bzGYFZ-N0gQF6ebxeaUjBnjX2_5PIZrmSvh9H9ZWJufGh5p4EU5OLeFkpo1Md4IZqhB59N23PnMpEAbalIiauPs_4aNMjAGE3yE-3lDw&quot; height=&quot;200&quot; width=&quot;auto&quot; /&gt;&lt;br&gt;&lt;br&gt;</SimpleData>
	</SchemaData></ExtendedData>
      <Point><altitudeMode>clampToGround</altitudeMode><coordinates>88.3630847,22.5210581,0</coordinates></Point>
  </Placemark>
  <Placemark>
	<name>Point 121</name>
      <Point><altitudeMode>clampToGround</altitudeMode><coordinates>88.3626562,22.5210382,0</coordinates></Point>
  </Placemark>
  <Placemark>
	<name>Point 128</name>
      <Point><altitudeMode>clampToGround</altitudeMode><coordinates>88.3653358,22.5210321,0</coordinates></Point>
  </Placemark>
  <Placemark>
	<name>Point 132</name>
      <Point><altitudeMode>clampToGround</altitudeMode><coordinates>88.3655047,22.522401,0</coordinates></Point>
  </Placemark>
  <Placemark>
	<name>EKDALIA</name>
	<ExtendedData><SchemaData schemaUrl="#All_Pandal_Points">
		<SimpleData name="descriptio">&lt;img src=&quot;https://lh6.googleusercontent.com/ZBap3eK3MAOJdSHU6pqoN9mMxcp5TLrALYsT4wPkTD9jPFNlX_0e5kr494grOQz_zFbULYeNNiVpTRn1343h8u7CVprS_SzQiUhmAejQuSoejjho5VShq_2tSfZ27bQeHw&quot; height=&quot;200&quot; width=&quot;auto&quot; /&gt;&lt;br&gt;&lt;br&gt;</SimpleData>
	</SchemaData></ExtendedData>
      <Point><altitudeMode>clampToGround</altitudeMode><coordinates>88.3664931,22.5211411,0</coordinates></Point>
  </Placemark>
  <Placemark>
      <Point><altitudeMode>clampToGround</altitudeMode><coordinates>88.3667171,22.5211634,0</coordinates></Point>
  </Placemark>
  <Placemark>
	<name>MUKUL SANGHA</name>
	<ExtendedData><SchemaData schemaUrl="#All_Pandal_Points">
		<SimpleData name="descriptio">&lt;img src=&quot;https://lh5.googleusercontent.com/isGGNCxjJeN9B0IH1j86Nu1rnMXf1XoKFc9MN2au0qWuhQaaUShJCoRsefPaHT8asNIDakHz4ersAmQC4b41saJFNC6WrUwaEQVTdt4lR3n2eWAIoXoNAdQbZuUdmHQ&quot; height=&quot;200&quot; width=&quot;auto&quot; /&gt;&lt;br&gt;&lt;br&gt;</SimpleData>
	</SchemaData></ExtendedData>
      <Point><altitudeMode>clampToGround</altitudeMode><coordinates>88.3168334,22.5038174,0</coordinates></Point>
  </Placemark>
  <Placemark>
	<name>PARK CIRCUS PUJA</name>
	<ExtendedData><SchemaData schemaUrl="#All_Pandal_Points">
		<SimpleData name="descriptio">&lt;img src=&quot;https://lh3.googleusercontent.com/A5XxIBvIPlBq1p8LNl8WBNohIOq1U1PB18VVpEX39uR0iHc2EgsfZKGJi0aTuD0OwbrqZcHO1wMXYSMRcVlo8zAvZxy-el5ZHAa83yxq7_XgKScqwRIr8YHqPv2ouVM&quot; height=&quot;200&quot; width=&quot;auto&quot; /&gt;&lt;br&gt;&lt;br&gt;</SimpleData>
	</SchemaData></ExtendedData>
      <Point><altitudeMode>clampToGround</altitudeMode><coordinates>88.367393,22.5430901,0</coordinates></Point>
  </Placemark>
  <Placemark>
	<name>BEHALA NATUN DAL</name>
	<ExtendedData><SchemaData schemaUrl="#All_Pandal_Points">
		<SimpleData name="descriptio">&lt;img src=&quot;https://lh6.googleusercontent.com/zABXjAfpMBHXfF2dT2pnxbK2-MQbjtLn1xTWIUGM9SAlTDUbITMNsoiq67gG93lE6SCpi1ZZv_mZFX77GQtKUjnL6ErR4XR1NePIaOdPBp0wwgLLZ0uq6ffRCzchzwZH&quot; height=&quot;200&quot; width=&quot;auto&quot; /&gt;&lt;br&gt;&lt;br&gt;</SimpleData>
	</SchemaData></ExtendedData>
      <Point><altitudeMode>clampToGround</altitudeMode><coordinates>88.3202371,22.5005043,0</coordinates></Point>
  </Placemark>
  <Placemark>
	<name>BEHALA SREE SANGHA</name>
	<ExtendedData><SchemaData schemaUrl="#All_Pandal_Points">
		<SimpleData name="descriptio">&lt;img src=&quot;https://lh4.googleusercontent.com/mXADXcjMJSgVbf_vxj365jo8eE72o692sjBk-qWNPYsW7l8H8isU5wvgHfgpeuGpBWFvfMnlWIQLpHUjfpEz19FAsZkG9Nf6r1VRkCaQby1VwiX0gq9QAJAt7zOpEixp&quot; height=&quot;200&quot; width=&quot;auto&quot; /&gt;&lt;br&gt;&lt;br&gt;</SimpleData>
	</SchemaData></ExtendedData>
      <Point><altitudeMode>clampToGround</altitudeMode><coordinates>88.3201506,22.4979166,0</coordinates></Point>
  </Placemark>
  <Placemark>
	<name>ADARSHA PALLY</name>
	<ExtendedData><SchemaData schemaUrl="#All_Pandal_Points">
		<SimpleData name="descriptio">&lt;img src=&quot;https://lh5.googleusercontent.com/0BnEQFdFTGXiW3vntnG3FkWguz3cdrdpo-FkN7VHazZ9g7xsO58bJCFgcqH923woHZi7HRvZlzKVVV9kJKp2f_RGO4cdmGBb3z5nwB0smKKEMVr1if5fn-cMG9qLUdVg&quot; height=&quot;200&quot; width=&quot;auto&quot; /&gt;&lt;br&gt;&lt;br&gt;</SimpleData>
	</SchemaData></ExtendedData>
      <Point><altitudeMode>clampToGround</altitudeMode><coordinates>88.3212255,22.5014801,0</coordinates></Point>
  </Placemark>
  <Placemark>
	<name>E RWLY PLAY GRD</name>
	<ExtendedData><SchemaData schemaUrl="#All_Pandal_Points">
		<SimpleData name="descriptio">&lt;img src=&quot;https://lh3.googleusercontent.com/rkbHjKPddHCoiE_QfmhiEe2rA6NCuHVbTFVgHT14q4TyfIcRxNyUTfbZfJ7mRwV95ZDHTW1J5oRKqLDKF8ZZhq0RyavdA3cSHA-NcLHof1ZUNI_-kSEmdb5-SPGyuVd4&quot; height=&quot;200&quot; width=&quot;auto&quot; /&gt;&lt;br&gt;&lt;br&gt;</SimpleData>
	</SchemaData></ExtendedData>
      <Point><altitudeMode>clampToGround</altitudeMode><coordinates>88.3212121,22.5020965,0</coordinates></Point>
  </Placemark>
  <Placemark>
	<name>KAISER ST PUJA</name>
	<ExtendedData><SchemaData schemaUrl="#All_Pandal_Points">
		<SimpleData name="descriptio">&lt;img src=&quot;https://lh6.googleusercontent.com/thbmZ6ESyPvqS9tu6T7_Jitm5-UA29LQ-YUQ9A7xLflA7k95b6Seopc81Hmwt-eeLORsF5yNRTzh2-vflS7G-prXH9K78YiSvf1R1Xn-2lYA0M8FcBtXeo5LnlOsrOE&quot; height=&quot;200&quot; width=&quot;auto&quot; /&gt;&lt;br&gt;&lt;br&gt;</SimpleData>
	</SchemaData></ExtendedData>
      <Point><altitudeMode>clampToGround</altitudeMode><coordinates>88.3720037,22.5711176,0</coordinates></Point>
  </Placemark>
  <Placemark>
	<name>DEBDARU FATAK</name>
	<ExtendedData><SchemaData schemaUrl="#All_Pandal_Points">
		<SimpleData name="descriptio">&lt;img src=&quot;https://lh5.googleusercontent.com/0VlIBt5Ap4L_0GYWoYuHc98Rsn0N9ekJhXq5H0fZaIhwL5taKDV1RNjY9tbcQgdxg24G9iwCfivG6K9i9Jv8a-BVottppoKCWf6tJDQAFeVdy2M2sZSGDJPFk_0OvnGV&quot; height=&quot;200&quot; width=&quot;auto&quot; /&gt;&lt;br&gt;&lt;br&gt;</SimpleData>
	</SchemaData></ExtendedData>
      <Point><altitudeMode>clampToGround</altitudeMode><coordinates>88.3175576,22.5024818,0</coordinates></Point>
  </Placemark>
  <Placemark>
	<name>BEHALA CLUB</name>
	<ExtendedData><SchemaData schemaUrl="#All_Pandal_Points">
		<SimpleData name="descriptio">&lt;img src=&quot;https://lh3.googleusercontent.com/8GV94cDgl7DLDRbS8H1STOaAHGeqKTHNU6tGwDJ4x9hDFBLSWeBjC3dgNI_rKRPA8QeI2vREaBtfa8K4sC8D8Hhq9hFmxZZxY2squcZmAqO3E5MvaJSg9Iq3RBHFe2Ms&quot; height=&quot;200&quot; width=&quot;auto&quot; /&gt;&lt;br&gt;&lt;br&gt;</SimpleData>
	</SchemaData></ExtendedData>
      <Point><altitudeMode>clampToGround</altitudeMode><coordinates>88.3166114,22.5046283,0</coordinates></Point>
  </Placemark>
  <Placemark>
	<name>BADAM TALA</name>
	<ExtendedData><SchemaData schemaUrl="#All_Pandal_Points">
		<SimpleData name="descriptio">&lt;img src=&quot;https://lh3.googleusercontent.com/t_DvhM8pvD48g1a2UJgYRygZeqlugLiaBYohA2b98Bxd4FkiiJ1ij81sjkyEeZNb1YXIhkiAt6rc0uum2SzXGguceVNhBpK0MrwcX0qSTQejeyd8Kh9G5kXRnvds0U4&quot; height=&quot;200&quot; width=&quot;auto&quot; /&gt;&lt;br&gt;&lt;br&gt;</SimpleData>
	</SchemaData></ExtendedData>
      <Point><altitudeMode>clampToGround</altitudeMode><coordinates>88.3434503,22.5180043,0</coordinates></Point>
  </Placemark>
  <Placemark>
	<name>66 PALLY</name>
	<ExtendedData><SchemaData schemaUrl="#All_Pandal_Points">
		<SimpleData name="descriptio">&lt;img src=&quot;https://lh4.googleusercontent.com/CKh9vnQAMkhPrV2TPobsrgovkpGs2sKOOkWDrNpNPbDQhrOnxC3wrLvSynNeXzJC2Rhvb8_xPkaPRY9NJZJrXq6EkM_g9iYkWTY2gFlqSlNc98k2yLcw0qvvCWTsOGo&quot; height=&quot;200&quot; width=&quot;auto&quot; /&gt;&lt;br&gt;&lt;br&gt;</SimpleData>
	</SchemaData></ExtendedData>
      <Point><altitudeMode>clampToGround</altitudeMode><coordinates>88.3426979,22.5180947,0</coordinates></Point>
  </Placemark>
  <Placemark>
	<name>CHALTA BAGAN</name>
	<ExtendedData><SchemaData schemaUrl="#All_Pandal_Points">
		<SimpleData name="descriptio">&lt;img src=&quot;https://lh3.googleusercontent.com/xXVplz5YiiBH3dZ1H6MqZIsrgx6aarYkR3XqwKdeBusMBiU9ANLia43_hQ_3UXVgkjCkSdkumaE-f1XQCCAx79Li8WcOfhNDQR-TmFRdBSK0QOulFF2o698jkdI_PMw&quot; height=&quot;200&quot; width=&quot;auto&quot; /&gt;&lt;br&gt;&lt;br&gt;</SimpleData>
	</SchemaData></ExtendedData>
      <Point><altitudeMode>clampToGround</altitudeMode><coordinates>88.3721928,22.585113,0</coordinates></Point>
  </Placemark>
  <Placemark>
	<name>NO ENTRY</name>
	<ExtendedData><SchemaData schemaUrl="#All_Pandal_Points">
		<SimpleData name="descriptio">&lt;img src=&quot;https://lh4.googleusercontent.com/vFHAefKYLXM22C-eUoUjXjtW8LKCRjtNYUTcq58kDn4azKn52TaeyWzpleQyCQYeh2S1s8JVR6hI5BzEqFYIHfPVijVW56ZgrLdJFnUGPqZoxDK4MTTk69Sg38UivUmlvw&quot; height=&quot;200&quot; width=&quot;auto&quot; /&gt;&lt;br&gt;&lt;br&gt;&lt;br&gt;&lt;br&gt;&lt;img src=&quot;https://lh4.googleuserco</SimpleData>
	</SchemaData></ExtendedData>
      <Point><altitudeMode>clampToGround</altitudeMode><coordinates>88.3204966,22.5010483,0</coordinates></Point>
  </Placemark>
  <Placemark>
	<name>MILAN MANDIR</name>
	<ExtendedData><SchemaData schemaUrl="#All_Pandal_Points">
		<SimpleData name="descriptio">&lt;img src=&quot;https://lh6.googleusercontent.com/_dxxKuDfVClnvdbAxvl0_6E_LCH4jR03XsBtQQBkCAEjDSOc1wHyaSaYdVOfh-JCa0HuGgLp5SJQo7k_lfb9tzN6HMdHNO0ffdZJFiJN8coTTzVr2vPyhlB9fWDn7yM&quot; height=&quot;200&quot; width=&quot;auto&quot; /&gt;&lt;br&gt;&lt;br&gt;</SimpleData>
	</SchemaData></ExtendedData>
      <Point><altitudeMode>clampToGround</altitudeMode><coordinates>88.3139634,22.4872586,0</coordinates></Point>
  </Placemark>
  <Placemark>
	<name>PLAYERS CORNER</name>
	<ExtendedData><SchemaData schemaUrl="#All_Pandal_Points">
		<SimpleData name="descriptio">&lt;img src=&quot;https://lh3.googleusercontent.com/NNnYjKuX1AQ95xq8O4GRzJqdU--eYawB2g0mwObNpbljyMj94I71nTCMgGmZY0Zp3GljaxkH9D6MTQeeexaNkkSq4yA0YaKkM33uPxQqD7xOle6ipMN4u-xirsFfN3Ol&quot; height=&quot;200&quot; width=&quot;auto&quot; /&gt;&lt;br&gt;&lt;br&gt;</SimpleData>
	</SchemaData></ExtendedData>
      <Point><altitudeMode>clampToGround</altitudeMode><coordinates>88.3137521,22.4859384,0</coordinates></Point>
  </Placemark>
  <Placemark>
	<name>JANAKALYAN SANGHA</name>
	<ExtendedData><SchemaData schemaUrl="#All_Pandal_Points">
		<SimpleData name="descriptio">&lt;img src=&quot;https://lh4.googleusercontent.com/-GPKTeXInzaMZt84FEXfgs62M0NqD7H6kZScWQmGsNT4gw4Eomm3Ta0aWk-o7F2lmpUYbHLMpZqIt6AC7Ot_-TyWNIkJoSTOJ_Qhbh--D204c7ZPWruRNB_wRGY7SUX5Jw&quot; height=&quot;200&quot; width=&quot;auto&quot; /&gt;&lt;br&gt;&lt;br&gt;</SimpleData>
	</SchemaData></ExtendedData>
      <Point><altitudeMode>clampToGround</altitudeMode><coordinates>88.3126284,22.4852438,0</coordinates></Point>
  </Placemark>
  <Placemark>
	<name>BEHALA SRISTI</name>
	<ExtendedData><SchemaData schemaUrl="#All_Pandal_Points">
		<SimpleData name="descriptio">&lt;img src=&quot;https://lh4.googleusercontent.com/IBHoyEIWhY6eCL949tXVU21m-A-Pdoe7hPFhVcwIYFyA7x2w3oUQ1Eg06MD_ZuSG4BVBAEJVNMqbqMxKFyqXfOnb7TdsVCIb9dKcV4jXkM12iEBzyrJsbmTy0JaYfaOO&quot; height=&quot;200&quot; width=&quot;auto&quot; /&gt;&lt;br&gt;&lt;br&gt;</SimpleData>
	</SchemaData></ExtendedData>
      <Point><altitudeMode>clampToGround</altitudeMode><coordinates>88.3120349,22.4814148,0</coordinates></Point>
  </Placemark>
  <Placemark>
	<name>MUDIALI</name>
	<ExtendedData><SchemaData schemaUrl="#All_Pandal_Points">
		<SimpleData name="descriptio">&lt;img src=&quot;https://lh4.googleusercontent.com/hLx-oixezOIjwCe9tvWGP2Y8X9YUO7LDGz1NuB7Y0u_W6nCJ92qzi_olO1hcBgR2ZuxDgJ9jEG4ffBZ3AvOmetBiX7HGHwJkixo4Nbhe609bLgxWuOSJT4_vREJr6OTQfw&quot; height=&quot;200&quot; width=&quot;auto&quot; /&gt;&lt;br&gt;&lt;br&gt;</SimpleData>
	</SchemaData></ExtendedData>
      <Point><altitudeMode>clampToGround</altitudeMode><coordinates>88.3467266,22.5101509,0</coordinates></Point>
  </Placemark>
  <Placemark>
	<name>TAPOBAN</name>
	<ExtendedData><SchemaData schemaUrl="#All_Pandal_Points">
		<SimpleData name="descriptio">&lt;img src=&quot;https://lh4.googleusercontent.com/5ls2iDCVp5gAsGg4XUREjPThzA5LiTsXId9Xfh87rQcwo0kSDjpFD82suwdzIQp5jubqPvDCMZw6gMFu0bz8vvTeW-vHv_7y_IQC4_uzc5jiKihF46SuFVfQtiPedyeA&quot; height=&quot;200&quot; width=&quot;auto&quot; /&gt;&lt;br&gt;&lt;br&gt;</SimpleData>
	</SchemaData></ExtendedData>
      <Point><altitudeMode>clampToGround</altitudeMode><coordinates>88.3118109,22.4765905,0</coordinates></Point>
  </Placemark>
  <Placemark>
	<name>Point 327</name>
      <Point><altitudeMode>clampToGround</altitudeMode><coordinates>88.3487946,22.5129683,0</coordinates></Point>
  </Placemark>
  <Placemark>
	<name>BARISHA UDAYAN PALLY CLUB</name>
	<ExtendedData><SchemaData schemaUrl="#All_Pandal_Points">
		<SimpleData name="descriptio">&lt;img src=&quot;https://lh6.googleusercontent.com/YMvlxtssKkFWRPwGfJuGTkP8DSUy_QSc-Fm1l3kO-fOPsoTJEkZmHaSVtLzCOb79kIRgvW1Qavc5WAA9TFlaTAu3byBl8M3k4d9i65rA-xipWEf0zl_PDdwijEImP2wn&quot; height=&quot;200&quot; width=&quot;auto&quot; /&gt;&lt;br&gt;&lt;br&gt;</SimpleData>
	</SchemaData></ExtendedData>
      <Point><altitudeMode>clampToGround</altitudeMode><coordinates>88.3099347,22.4771246,0</coordinates></Point>
  </Placemark>
  <Placemark>
	<name>Point 328</name>
      <Point><altitudeMode>clampToGround</altitudeMode><coordinates>88.349964,22.5127106,0</coordinates></Point>
  </Placemark>
  <Placemark>
	<name>STATE BANK PARK</name>
	<ExtendedData><SchemaData schemaUrl="#All_Pandal_Points">
		<SimpleData name="descriptio">&lt;img src=&quot;https://lh5.googleusercontent.com/pUTEeNEJ0rg4XomeSwoGYZDsFquEg5TUoT7kO1aR7_76XDn4XaO4wgfnzjUvZNlTgJzr_c4u7U2lzVLhZeJGhmJRmXssJMx0H36g4_rDdGqRBfJbjSuxCvRviS6NEKr6&quot; height=&quot;200&quot; width=&quot;auto&quot; /&gt;&lt;br&gt;&lt;br&gt;</SimpleData>
	</SchemaData></ExtendedData>
      <Point><altitudeMode>clampToGround</altitudeMode><coordinates>88.3090362,22.4679547,0</coordinates></Point>
  </Placemark>
  <Placemark>
	<name>JATRA SURU SANGHA</name>
	<ExtendedData><SchemaData schemaUrl="#All_Pandal_Points">
		<SimpleData name="descriptio">&lt;img src=&quot;https://lh4.googleusercontent.com/C9IQQNsClhFs45XsoalR5ckc9FprBDcGFWOtJJRplacz_0P8WQB7DGRvCk5rApTSCaJOtcOq5cDJ6CvkhuVH-OzBOjWADwRFE86VIoC6VcD4dp-CJLidn-InucH9P1VN&quot; height=&quot;200&quot; width=&quot;auto&quot; /&gt;&lt;br&gt;&lt;br&gt;</SimpleData>
	</SchemaData></ExtendedData>
      <Point><altitudeMode>clampToGround</altitudeMode><coordinates>88.377922,22.470569,0</coordinates></Point>
  </Placemark>
  <Placemark>
	<name>KALYAN SANGHA</name>
	<ExtendedData><SchemaData schemaUrl="#All_Pandal_Points">
		<SimpleData name="descriptio">&lt;img src=&quot;https://lh3.googleusercontent.com/H7MD13zfByoINOK2bYkfP5hCUZpuay2imzt_51F6QVGLtVvKZdXF0uYstJkcIwT9a1w1HzXtMBoexPwkZ9jMXoFGx2TDrV7Ub4TXGFMGZfxjzFI5sb2y2k7zSiclFXBb&quot; height=&quot;200&quot; width=&quot;auto&quot; /&gt;&lt;br&gt;&lt;br&gt;</SimpleData>
	</SchemaData></ExtendedData>
      <Point><altitudeMode>clampToGround</altitudeMode><coordinates>88.378197,22.4698998,0</coordinates></Point>
  </Placemark>
  <Placemark>
	<name>SURUCHI SANGHA</name>
	<ExtendedData><SchemaData schemaUrl="#All_Pandal_Points">
		<SimpleData name="descriptio">&lt;img src=&quot;https://lh5.googleusercontent.com/WQt_oMrM3BeOau0fHcGdF21UuMtQHqiDjCsUJ-fSNuxpVLD8H5kyDfrBhUBVl7uOasPLV40A7DyHqQcXZTjDB6reZOguIWSK77pz1fxKe5MvSuq1FYEpfcNeAcUVNfk&quot; height=&quot;200&quot; width=&quot;auto&quot; /&gt;&lt;br&gt;&lt;br&gt;</SimpleData>
	</SchemaData></ExtendedData>
      <Point><altitudeMode>clampToGround</altitudeMode><coordinates>88.333616,22.5094027,0</coordinates></Point>
  </Placemark>
  <Placemark>
	<name>BABU BAGAN</name>
	<ExtendedData><SchemaData schemaUrl="#All_Pandal_Points">
		<SimpleData name="descriptio">&lt;img src=&quot;https://lh5.googleusercontent.com/Q09deplW4Yesc0uswPpTUoePhZxR4jB7tMYVnQ-kc0BN8aq19h2wOnlgj2nhNOYXnY9IOqYN_K-HFIsVHf74q-49C6PNZofkCV93u-UiT2J1YPG2bMbkHwhPfWNSXpM&quot; height=&quot;200&quot; width=&quot;auto&quot; /&gt;&lt;br&gt;&lt;br&gt;</SimpleData>
	</SchemaData></ExtendedData>
      <Point><altitudeMode>clampToGround</altitudeMode><coordinates>88.3685987,22.5078985,0</coordinates></Point>
  </Placemark>
  <Placemark>
	<name>Point 428</name>
	<ExtendedData><SchemaData schemaUrl="#All_Pandal_Points">
		<SimpleData name="descriptio">&lt;img src=&quot;https://lh3.googleusercontent.com/M9YWAb8YhGfGVYWdK2xa2QOMXE9oeXjt7KXVmrmaGjsS8WSASXlE27tEzRfGlstGKctou3VJqoNdM6YCP2RAQYObydYjAJLtucvXTKvg9yhdwR4d4SxVGVksNVyFajrunQ&quot; height=&quot;200&quot; width=&quot;auto&quot; /&gt;&lt;br&gt;&lt;br&gt;</SimpleData>
	</SchemaData></ExtendedData>
      <Point><altitudeMode>clampToGround</altitudeMode><coordinates>88.3675935,22.5088235,0</coordinates></Point>
  </Placemark>
  <Placemark>
	<name>Point 453</name>
      <Point><altitudeMode>clampToGround</altitudeMode><coordinates>88.3347049,22.5099379,0</coordinates></Point>
  </Placemark>
  <Placemark>
	<name>Point 455</name>
      <Point><altitudeMode>clampToGround</altitudeMode><coordinates>88.3346727,22.5096083,0</coordinates></Point>
  </Placemark>
  <Placemark>
	<name>Point 456</name>
      <Point><altitudeMode>clampToGround</altitudeMode><coordinates>88.3346741,22.5094844,0</coordinates></Point>
  </Placemark>
  <Placemark>
	<name>Point 468</name>
      <Point><altitudeMode>clampToGround</altitudeMode><coordinates>88.3344957,22.5101758,0</coordinates></Point>
  </Placemark>
  <Placemark>
	<name>Point 469</name>
      <Point><altitudeMode>clampToGround</altitudeMode><coordinates>88.3361158,22.5092342,0</coordinates></Point>
  </Placemark>
  <Placemark>
	<name>DESAPRIYO PARK</name>
	<ExtendedData><SchemaData schemaUrl="#All_Pandal_Points">
		<SimpleData name="descriptio">&lt;img src=&quot;https://lh4.googleusercontent.com/u0r_OYMUuLU4tEdQO9mKd9sz7BNXHByXmvDgsBEMGB0h40qM9zsHjdeub3xt_A4YL6zL63yu6lDVP8bWqwENz4KDzK5jnCnE3nQPVPO6iPkpuJ92ImdC2iT0z1FPlocQ&quot; height=&quot;200&quot; width=&quot;auto&quot; /&gt;&lt;br&gt;&lt;br&gt;</SimpleData>
	</SchemaData></ExtendedData>
      <Point><altitudeMode>clampToGround</altitudeMode><coordinates>88.3535233,22.5186101,0</coordinates></Point>
  </Placemark>
  <Placemark>
	<name>MD. ALI PARK</name>
	<ExtendedData><SchemaData schemaUrl="#All_Pandal_Points">
		<SimpleData name="descriptio">&lt;img src=&quot;https://lh6.googleusercontent.com/proxy/dcqRv4J0zvEjFwW1yZSl55WtuH5hbJ8hfiyCkyh8fT4kZchyYXcnEwp3VhU2I-vx_oDVQ4tJ2TRiJvh5NzW-YKUu-PYOoAtuafCNdu0b2YVMHCBXzegpHbeCmlFuwTBMafIu1LWr1fhHaC6xvXoV7XobTLkRGshQJdop6YAFKlynQk_-DQ4QeUhDemMAXseR5RIwwa7Rrzij</SimpleData>
	</SchemaData></ExtendedData>
      <Point><altitudeMode>clampToGround</altitudeMode><coordinates>88.360757,22.577324,0</coordinates></Point>
  </Placemark>
  <Placemark>
	<name>COLLEGE SQR</name>
	<ExtendedData><SchemaData schemaUrl="#All_Pandal_Points">
		<SimpleData name="descriptio">&lt;img src=&quot;https://lh4.googleusercontent.com/proxy/lSH8B9DkL3k_2FuhmxrfLmSgYEChnXJLH_r7095hoc5FFbe4B0i_vAIL4ALkkCDdKdXycsLI4qkn3UCnuilFMmbTMoKr_wDTM4XhMFo_X42U7TUiaAHjWHn9vW9g9ue3sfBTA1PtfvtOOrx14XLRXHl9a-ycBp8D2L4RJxXdBnpoMbaB3sP_RU96fZaZvO-j90j6AkkgTJaC</SimpleData>
	</SchemaData></ExtendedData>
      <Point><altitudeMode>clampToGround</altitudeMode><coordinates>88.363995,22.57483,0</coordinates></Point>
  </Placemark>
  <Placemark>
	<name>Point 110</name>
      <Point><altitudeMode>clampToGround</altitudeMode><coordinates>88.361569,22.578388,0</coordinates></Point>
  </Placemark>
  <Placemark>
	<name>Point 111</name>
      <Point><altitudeMode>clampToGround</altitudeMode><coordinates>88.360628,22.57811,0</coordinates></Point>
  </Placemark>
  <Placemark>
	<name>Point 112</name>
	<ExtendedData><SchemaData schemaUrl="#All_Pandal_Points">
		<SimpleData name="descriptio">&lt;img src=&quot;https://lh5.googleusercontent.com/proxy/NFVTTMWezZHib3QagdAYc1jcFEPjMFGxqKd6aemFurQFJa97WcFXoBCq0aEeT8CPJMydo7UBJzFACx1ZIuyprgiCCsq2KOLXhl_donxg2qJePJmUaApcQVAQYH12HaNTcecLbQCo4uhuFfqi1gI5Bld8Dy3T4y3IrCq3b_xrxJ9rgcssBhxWqSF7X2pB01u7iAI50QXAfbIi</SimpleData>
	</SchemaData></ExtendedData>
      <Point><altitudeMode>clampToGround</altitudeMode><coordinates>88.361324,22.577896,0</coordinates></Point>
  </Placemark>
  <Placemark>
	<name>Point 113</name>
	<ExtendedData><SchemaData schemaUrl="#All_Pandal_Points">
		<SimpleData name="descriptio">&lt;img src=&quot;https://lh5.googleusercontent.com/proxy/7TZ8aebn-o9ZxrEvqu_mS_oi3q-UocEyf3oEpt-W5vqDMUtCHyKnuu4brcpDz8g8WFQ6BrPYumtezQCtLhvPiFxzhPIFn-uYnL-J2mT5Cg99HLRHQuTqY6PA2VMkqY5td94AtZ3maakz0_sFkQiY6xlQqrtArQYxmiZV04wn6sff7fj75cAv6z_aCTWebKFqcKbaPYsBCv33</SimpleData>
	</SchemaData></ExtendedData>
      <Point><altitudeMode>clampToGround</altitudeMode><coordinates>88.360044,22.575943,0</coordinates></Point>
  </Placemark>
  <Placemark>
	<name>Point 114</name>
      <Point><altitudeMode>clampToGround</altitudeMode><coordinates>88.360795,22.575806,0</coordinates></Point>
  </Placemark>
  <Placemark>
	<name>Point 115</name>
	<ExtendedData><SchemaData schemaUrl="#All_Pandal_Points">
		<SimpleData name="descriptio">&lt;img src=&quot;https://lh6.googleusercontent.com/proxy/kG1nz6BgWW0MOm72odSBbPxQrPMtqFOx23_2_sV-u3gTV-AIrkhpVqlFyKZ78_GhIYZwCXxIyW9a2AeX0fFvNiplbo7M7cY1RL2tueXV-o9ZEXaEhZkuFMfvHmQ7f6PUzpQoOdtfPFkxHc50-lfxtbi_YW0b9bncCMv3_SwL1EffTfz9YrC40RdT6sWLlP58BwZQGUWuT94B</SimpleData>
	</SchemaData></ExtendedData>
      <Point><altitudeMode>clampToGround</altitudeMode><coordinates>88.360317,22.576939,0</coordinates></Point>
  </Placemark>
  <Placemark>
	<name>Point 116</name>
	<ExtendedData><SchemaData schemaUrl="#All_Pandal_Points">
		<SimpleData name="descriptio">&lt;img src=&quot;https://lh5.googleusercontent.com/proxy/Fn0_YiKAUxZfBjaK0Du8velTH02m14PXXsgi94ARm7FuUhlQeYGvvwobJothTCTT1qpp53rtshwWDjROHi3rFMN6SDNprtoH2RqiGiYnAmuuGL677iNIdQXbifKEUXwu7BJrHdxDtrUIXh7QO7ZUOb6pm-8_BMmB6iN1ZwP8sEtivf85U0-siw5x9oYlLmqOhepdovNl8zXk</SimpleData>
	</SchemaData></ExtendedData>
      <Point><altitudeMode>clampToGround</altitudeMode><coordinates>88.365008,22.575636,0</coordinates></Point>
  </Placemark>
  <Placemark>
	<name>Point 117</name>
	<ExtendedData><SchemaData schemaUrl="#All_Pandal_Points">
		<SimpleData name="descriptio">&lt;img src=&quot;https://lh3.googleusercontent.com/proxy/yUyRC1RZHWLgli1WtzWWgrhqCEL1kFxVmtUL6l39vT3IrPSPr9LDU6hfl6UuDekgJmlVcU1QRLVr0HWHcXQoIE5zFoN0zttAFXe6Wl6REn5RvRuM1OJAfmSfhb4q725XAaaaYXSMKlnbQEzbhgDz7c9JZDOjXSKJMsBpcqpbfmrEkuKtApF_foZChuZzn9wBEWJhG7urjJJt</SimpleData>
	</SchemaData></ExtendedData>
      <Point><altitudeMode>clampToGround</altitudeMode><coordinates>88.364166,22.575921,0</coordinates></Point>
  </Placemark>
  <Placemark>
	<name>Point 118</name>
	<ExtendedData><SchemaData schemaUrl="#All_Pandal_Points">
		<SimpleData name="descriptio">&lt;img src=&quot;https://lh5.googleusercontent.com/proxy/iUR0lFYj3xSBs0j4fwGZwbfkMlurazbZYvHS78r-K-mc9ZW59c_jQUDVKG03Pu9EuY0c0fOKRnt7uVXJVm8MZw5T7QnaNY3qy5EOg4LnfvfrzmXg3jrDn8hHPe4lFRZKVo3Ahzl7ZTQwS99GBo9xHsTjBJJVqSoHFdPTFFfIswdoprBNbPswHIKuYiQKEuvMxwyfg4T5YcQ0</SimpleData>
	</SchemaData></ExtendedData>
      <Point><altitudeMode>clampToGround</altitudeMode><coordinates>88.364102,22.573874,0</coordinates></Point>
  </Placemark>
  <Placemark>
	<name>Point 119</name>
	<ExtendedData><SchemaData schemaUrl="#All_Pandal_Points">
		<SimpleData name="descriptio">&lt;img src=&quot;https://lh4.googleusercontent.com/proxy/VKX6QzfzqfLZsEZo2OqIBE99CUKzLtaLSWC2arTRYXOn2keiA4Dm0t8ehnPlfij4KGsS15hPfUzuyc7SF8m0yV7Ky8pi-E47sQDO_ayZGyterjZvDqLrGbHx2mhwTBLZ8vzQxWq0MWvbdkhpqhRD8Unaspo5xf6pTbpmbnB8IZhBEdy9cW0wfr3zX3NsKjz_5ku_b9izSFFa</SimpleData>
	</SchemaData></ExtendedData>
      <Point><altitudeMode>clampToGround</altitudeMode><coordinates>88.362994,22.574266,0</coordinates></Point>
  </Placemark>
  <Placemark>
	<name>Point 120</name>
	<ExtendedData><SchemaData schemaUrl="#All_Pandal_Points">
		<SimpleData name="descriptio">&lt;img src=&quot;https://lh4.googleusercontent.com/proxy/ZZaGoSprhzlXRlE5UWpqYxCh2sX_CxzcJig2U252iCyQetKoYF6shqaLK_TfkYmuLY0nmlJnj1pXcHI3RnKpN22qnYk1XC3w67xrMiPvZZmZqvpKlTe4KdKdW3v6RQSnbb-TJjb6nSfmQirfq9GvOcQM9miZxaWm_gwCSeT15I2A4vQfgCcBfSpUxxgFeVp21NyHMpiR0Fdw</SimpleData>
	</SchemaData></ExtendedData>
      <Point><altitudeMode>clampToGround</altitudeMode><coordinates>88.362742,22.57435,0</coordinates></Point>
  </Placemark>
  <Placemark>
	<name>PUTIARY CLUB</name>
	<ExtendedData><SchemaData schemaUrl="#All_Pandal_Points">
		<SimpleData name="descriptio">&lt;img src=&quot;https://lh3.googleusercontent.com/tSTPXSmRrQVD-d5kPainXPeXrGHH0FEMw0htBYj3nIBmnXi_gT7z8PYM7pSb0duF2rMvQHA5_MmOcb1hI2OmQh-pyzeEUQWPPyOsLUNWs6UUl72S6XAt_altCbpDRcWHyQ&quot; height=&quot;200&quot; width=&quot;auto&quot; /&gt;&lt;br&gt;&lt;br&gt;</SimpleData>
	</SchemaData></ExtendedData>
      <Point><altitudeMode>clampToGround</altitudeMode><coordinates>88.3430949,22.4799897,0</coordinates></Point>
  </Placemark>
  <Placemark>
	<name>PALLY UNNAYAN SAMITY</name>
	<ExtendedData><SchemaData schemaUrl="#All_Pandal_Points">
		<SimpleData name="descriptio">&lt;img src=&quot;https://lh6.googleusercontent.com/TWCxd0NiL1-1_1aNoQYyjV13StauOmSD-IJkafSRvlfAsmJKKT0WVzPfaRFR2-F8pWUhzUXJZAE1eyngjpl-CaZFLlnTWnKWk7VAQgu5sgca88mPUBMFma1t09afagzGzQ&quot; height=&quot;200&quot; width=&quot;auto&quot; /&gt;&lt;br&gt;&lt;br&gt;</SimpleData>
	</SchemaData></ExtendedData>
      <Point><altitudeMode>clampToGround</altitudeMode><coordinates>88.3420837,22.4781309,0</coordinates></Point>
  </Placemark>
  <Placemark>
	<name>VIVEKANANDA SPORTING CLUB</name>
	<ExtendedData><SchemaData schemaUrl="#All_Pandal_Points">
		<SimpleData name="descriptio">&lt;img src=&quot;https://lh3.googleusercontent.com/oKwbGK5mjHzQOWBpNdwkF3BrGUyV0xRtSJASfPJItSMLytUabrbk8V7s1ttjGlDFx8NqREbBOSU-9hwNU4890EPK1J4k11jL-cwnEbLphZwXAtQTh17Gogzf2VP0mXYXIQ&quot; height=&quot;200&quot; width=&quot;auto&quot; /&gt;&lt;br&gt;&lt;br&gt;</SimpleData>
	</SchemaData></ExtendedData>
      <Point><altitudeMode>clampToGround</altitudeMode><coordinates>88.3387095,22.4763439,0</coordinates></Point>
  </Placemark>
</Folder>
</Document></kml>
