{
"type": "FeatureCollection",
"crs": { "type": "name", "properties": { "name": "urn:ogc:def:crs:OGC:1.3:CRS84" } },
"features": [
{ "type": "Feature", "properties": { "Id": 1, "Area": 453.56273508300001, "x": 76.995829068899994, "y": 28.6029900656 }, "geometry": { "type": "Polygon", "coordinates": [ [ [ 76.995721464113373, 28.603021999483708 ], [ 76.995740324252282, 28.603046551567164 ], [ 76.995778945899204, 28.603086092550601 ], [ 76.995797788015508, 28.603109689899917 ], [ 76.995804315025751, 28.603111503783758 ], [ 76.995845081233028, 28.603092758760564 ], [ 76.995889147027157, 28.603076830114844 ], [ 76.995922358524496, 28.603059151291887 ], [ 76.99595776974536, 28.603043350052907 ], [ 76.9959790992704, 28.603026801157785 ], [ 76.995966820235594, 28.603006927160006 ], [ 76.995943470341317, 28.602973846303662 ], [ 76.995912421399893, 28.602934193869075 ], [ 76.995894643061192, 28.602909625881967 ], [ 76.995884347205646, 28.602880172772164 ], [ 76.995875494140108, 28.602869798225932 ], [ 76.995856003393641, 28.602869130204848 ], [ 76.995761507379285, 28.602907766089842 ], [ 76.995708102309294, 28.602944841976885 ], [ 76.995684609119508, 28.602961422684011 ], [ 76.995673971409502, 28.602971129196746 ], [ 76.995721464113373, 28.603021999483708 ] ] ] } },
{ "type": "Feature", "properties": { "Id": 2, "Area": 492.55390855399997, "x": 76.999424667100001, "y": 28.596600072299999 }, "geometry": { "type": "Polygon", "coordinates": [ [ [ 76.999322470347821, 28.596490289168205 ], [ 76.999326374515149, 28.596696509446087 ], [ 76.999311743763528, 28.596695292718028 ], [ 76.9993136917371, 28.596712453812554 ], [ 76.999523091929376, 28.596713663126458 ], [ 76.999521333727344, 28.596706526632126 ], [ 76.999527200585433, 28.596673492951439 ], [ 76.999523223227243, 28.596634874516472 ], [ 76.999522653812377, 28.596604800729747 ], [ 76.999527490297268, 28.596517347815233 ], [ 76.999525271145913, 28.596485865873824 ], [ 76.999525244031034, 28.596484433788692 ], [ 76.999322470347821, 28.596490289168205 ] ] ] } },
{ "type": "Feature", "properties": { "Id": 3, "Area": 606.92255673900002, "x": 77.000073922400006, "y": 28.5959382948 }, "geometry": { "type": "Polygon", "coordinates": [ [ [ 76.999968593049999, 28.595848591298612 ], [ 76.99996880795986, 28.596074204499114 ], [ 77.000178350688955, 28.596068725812152 ], [ 77.000180093803579, 28.59580369040852 ], [ 76.999971858576686, 28.59580676231764 ], [ 76.999968593049999, 28.595848591298612 ] ] ] } },
{ "type": "Feature", "properties": { "Id": 4, "Area": 2590.6220209399999, "x": 76.972107957600002, "y": 28.598175880599999 }, "geometry": { "type": "Polygon", "coordinates": [ [ [ 76.972216277554921, 28.597855106624948 ], [ 76.971727952077515, 28.59819292508838 ], [ 76.972007167831975, 28.598496429466838 ], [ 76.972484255058035, 28.598158773500018 ], [ 76.972216277554921, 28.597855106624948 ] ] ] } },
{ "type": "Feature", "properties": { "Id": 5, "Area": 6506.2093032000002, "x": 76.96380583, "y": 28.595489176800001 }, "geometry": { "type": "Polygon", "coordinates": [ [ [ 76.963233123326759, 28.595138364440764 ], [ 76.963226740288249, 28.595399723019018 ], [ 76.963241973665774, 28.595614468253252 ], [ 76.963242465357567, 28.59564091846401 ], [ 76.963470857182273, 28.595630996788284 ], [ 76.96368438732155, 28.595627904309303 ], [ 76.963774294738542, 28.595626602112411 ], [ 76.963785341847526, 28.595638786444283 ], [ 76.963781975793992, 28.595806915434952 ], [ 76.963873944816186, 28.595864793386532 ], [ 76.963997372641742, 28.595868735498374 ], [ 76.964099023107053, 28.595865352968431 ], [ 76.964172760736133, 28.595873834755778 ], [ 76.964311120190573, 28.595866100250078 ], [ 76.964421424751905, 28.595862592096559 ], [ 76.964424544208143, 28.595797606822213 ], [ 76.964416784246566, 28.595744000441563 ], [ 76.964378044742219, 28.595660999126135 ], [ 76.964322347269075, 28.595575259107964 ], [ 76.964304889803614, 28.595545668245123 ], [ 76.964187344572935, 28.595407105378523 ], [ 76.964110698557434, 28.595285856192731 ], [ 76.964019960057826, 28.59515089929813 ], [ 76.963952476978974, 28.595141913588634 ], [ 76.963891350671247, 28.595127877107732 ], [ 76.963892238350439, 28.59517561431878 ], [ 76.963233123326759, 28.595138364440764 ] ] ] } },
{ "type": "Feature", "properties": { "Id": 6, "Area": 1926.4615676000001, "x": 76.9642459003, "y": 28.596284958799998 }, "geometry": { "type": "Polygon", "coordinates": [ [ [ 76.964466949434154, 28.59606277936258 ], [ 76.964381218327588, 28.596087171676846 ], [ 76.964247340567653, 28.596142025967769 ], [ 76.96410228566674, 28.596200349216097 ], [ 76.963975961418882, 28.596258400987303 ], [ 76.963811191665016, 28.596264094870829 ], [ 76.963792706762376, 28.596277591277119 ], [ 76.963831766938043, 28.596363011806897 ], [ 76.96391142021811, 28.59641477267002 ], [ 76.963971666366632, 28.596430435795813 ], [ 76.964150068216952, 28.596351786589157 ], [ 76.964188944227104, 28.59642728817736 ], [ 76.964313859261225, 28.596494928885807 ], [ 76.964376867690049, 28.596457637170996 ], [ 76.964488022746039, 28.596389883329156 ], [ 76.964501469848187, 28.596307009369198 ], [ 76.964608693985781, 28.596229390898991 ], [ 76.964466949434154, 28.59606277936258 ] ] ] } },
{ "type": "Feature", "properties": { "Id": 7, "Area": 1001.31137613, "x": 76.964139758000002, "y": 28.617937594899999 }, "geometry": { "type": "Polygon", "coordinates": [ [ [ 76.964020856037848, 28.61773099201579 ], [ 76.964051953705138, 28.618193543126569 ], [ 76.964278670621809, 28.618091042360501 ], [ 76.964215265332683, 28.617705024197555 ], [ 76.964020856037848, 28.61773099201579 ] ] ] } },
{ "type": "Feature", "properties": { "Id": 8, "Area": 2737.2156557899998, "x": 76.986385254499993, "y": 28.6124838741 }, "geometry": { "type": "Polygon", "coordinates": [ [ [ 76.985806071518439, 28.612438342899349 ], [ 76.985857273071019, 28.612571291600595 ], [ 76.985896577594019, 28.612647115064767 ], [ 76.986028978442775, 28.612638012492937 ], [ 76.986188157812748, 28.612614192469366 ], [ 76.986288235666038, 28.612612725780629 ], [ 76.986407112382167, 28.612603821048378 ], [ 76.986593249783098, 28.612574830473722 ], [ 76.986757973296719, 28.612558090961254 ], [ 76.986876849885775, 28.612549185821685 ], [ 76.986998026806788, 28.612518759533582 ], [ 76.986994423239665, 28.612471062766396 ], [ 76.986995914712139, 28.61240657894048 ], [ 76.986989516478317, 28.612354148184867 ], [ 76.986722280535332, 28.612386715614232 ], [ 76.986570721856452, 28.612384162264146 ], [ 76.986524740248456, 28.612384836248228 ], [ 76.986499273874941, 28.612325522509789 ], [ 76.986391261605931, 28.612336655558128 ], [ 76.986283384074227, 28.612354948988042 ], [ 76.986164552539094, 28.612366240421057 ], [ 76.98609715710991, 28.612379165477918 ], [ 76.986083228848258, 28.612357882260465 ], [ 76.98599676505853, 28.6123639242564 ], [ 76.986008437659891, 28.612409115344761 ], [ 76.986000502916156, 28.612418781541088 ], [ 76.986000907156566, 28.6124402629444 ], [ 76.985882030566955, 28.612449167312942 ], [ 76.985892445561248, 28.612427527376141 ], [ 76.985849213630317, 28.612430548321733 ], [ 76.985806071518439, 28.612438342899349 ] ] ] } },
{ "type": "Feature", "properties": { "Id": 9, "Area": 693.04574093899998, "x": 76.986298722399994, "y": 28.6052243058 }, "geometry": { "type": "Polygon", "coordinates": [ [ [ 76.986100764783387, 28.605172525606935 ], [ 76.986105490103711, 28.605279893102502 ], [ 76.986111528009502, 28.605313229394884 ], [ 76.986200825375491, 28.605314308450033 ], [ 76.98631730366607, 28.605322151596855 ], [ 76.986412145007762, 28.605330311720529 ], [ 76.986446092432658, 28.605265352207205 ], [ 76.986463991768716, 28.605210177797879 ], [ 76.986498118780048, 28.605154765571669 ], [ 76.98651371768149, 28.605121112212938 ], [ 76.986316370627989, 28.605128779166634 ], [ 76.986210890638731, 28.605130324787154 ], [ 76.986209084158517, 28.605178100914301 ], [ 76.986141423840479, 28.605176704829205 ], [ 76.986100764783387, 28.605172525606935 ] ] ] } },
{ "type": "Feature", "properties": { "Id": 10, "Area": 551.53055336099999, "x": 77.000637910400002, "y": 28.607025842900001 }, "geometry": { "type": "Polygon", "coordinates": [ [ [ 77.000495990894294, 28.606941285891939 ], [ 77.000559129854665, 28.607109017175912 ], [ 77.000582736527988, 28.607168196925898 ], [ 77.000672275779706, 28.607147032608552 ], [ 77.000750450263538, 28.607119421746027 ], [ 77.000779983327988, 28.607095835966803 ], [ 77.000729023369516, 28.606977531838037 ], [ 77.000697673095928, 28.606905237929443 ], [ 77.000685932420708, 28.606878954260051 ], [ 77.000495990894294, 28.606941285891939 ] ] ] } },
{ "type": "Feature", "properties": { "Id": 11, "Area": 391.893392269, "x": 77.003224883000001, "y": 28.600648041700001 }, "geometry": { "type": "Polygon", "coordinates": [ [ [ 77.003116106146379, 28.600569327800585 ], [ 77.003126672011007, 28.600731220591221 ], [ 77.003272837848797, 28.600732367848366 ], [ 77.003340332779828, 28.600734677556382 ], [ 77.003342824421495, 28.600668498326762 ], [ 77.003342071668456, 28.600628824005437 ], [ 77.003350581063685, 28.60062105834864 ], [ 77.003300855015539, 28.600623703161578 ], [ 77.003302837454555, 28.600614123983092 ], [ 77.003328727923147, 28.600609921430497 ], [ 77.003328112045878, 28.60057746092993 ], [ 77.003278422244236, 28.600582015174883 ], [ 77.003230751108617, 28.600578899665408 ], [ 77.003230099036017, 28.600544529721404 ], [ 77.003132846796731, 28.600551696709395 ], [ 77.003116106146379, 28.600569327800585 ] ] ] } },
{ "type": "Feature", "properties": { "Id": 12, "Area": 491.55842493599999, "x": 77.004731609900006, "y": 28.599689432600002 }, "geometry": { "type": "Polygon", "coordinates": [ [ [ 77.004620927496077, 28.599605334125279 ], [ 77.004630491192145, 28.599714327649323 ], [ 77.004632414041495, 28.599793439957541 ], [ 77.00465001251564, 28.599808459534056 ], [ 77.004691156383728, 28.599809761101042 ], [ 77.004777517466351, 28.599798934129286 ], [ 77.004833624968114, 28.599790464488798 ], [ 77.004832537347411, 28.599733181298348 ], [ 77.004826506304326, 28.599643501623571 ], [ 77.004827328472587, 28.599572820357867 ], [ 77.004824766129502, 28.599551848516196 ], [ 77.004620927496077, 28.599605334125279 ] ] ] } },
{ "type": "Feature", "properties": { "Id": 13, "Area": 1023.74332994, "x": 77.008480088300004, "y": 28.596418597500001 }, "geometry": { "type": "Polygon", "coordinates": [ [ [ 77.008372772140447, 28.596621242849039 ], [ 77.008601156989528, 28.596611245215822 ], [ 77.008599647788969, 28.596531896781521 ], [ 77.008601255833611, 28.596419430998974 ], [ 77.008611173490749, 28.596349834620266 ], [ 77.00861772237333, 28.596300130849201 ], [ 77.008571952141708, 28.596257816427308 ], [ 77.008541166191804, 28.596215280001065 ], [ 77.008365101303056, 28.59621788824154 ], [ 77.00836566717912, 28.5962476439102 ], [ 77.008353700925653, 28.596406562776391 ], [ 77.008372772140447, 28.596621242849039 ] ] ] } },
{ "type": "Feature", "properties": { "Id": 14, "Area": 696.66663789100005, "x": 76.970880196400003, "y": 28.603718246900002 }, "geometry": { "type": "Polygon", "coordinates": [ [ [ 76.970605936736774, 28.603744993252217 ], [ 76.970705133277761, 28.603839458667604 ], [ 76.97077588318821, 28.603815280010121 ], [ 76.97089521302577, 28.603783780697903 ], [ 76.971017980572185, 28.603735695525828 ], [ 76.971060055297016, 28.603781383905648 ], [ 76.971130619888953, 28.603747286298503 ], [ 76.971122386315741, 28.60370772017119 ], [ 76.970988854625929, 28.603580682758864 ], [ 76.970892373831944, 28.603631692867665 ], [ 76.970791899656419, 28.60366953234972 ], [ 76.970605936736774, 28.603744993252217 ] ] ] } },
{ "type": "Feature", "properties": { "Id": 15, "Area": 388.13186670800002, "x": 76.971076178499999, "y": 28.6040760707 }, "geometry": { "type": "Polygon", "coordinates": [ [ [ 76.970904768690673, 28.604072779878738 ], [ 76.970959952677489, 28.604130471152772 ], [ 76.970991924684043, 28.604176562433985 ], [ 76.971113119902256, 28.604147343990931 ], [ 76.971161691555082, 28.604140668962813 ], [ 76.971131071795483, 28.60409455806046 ], [ 76.971207663051501, 28.604067181869524 ], [ 76.971258694154272, 28.604047339821292 ], [ 76.971253946452563, 28.604010402691031 ], [ 76.97122419573094, 28.604010835323564 ], [ 76.971190410374533, 28.604012520367018 ], [ 76.971152501253059, 28.604010684124376 ], [ 76.971151899634677, 28.60397846168976 ], [ 76.971090005534975, 28.603996074159568 ], [ 76.970975906212857, 28.60404309561644 ], [ 76.970904768690673, 28.604072779878738 ] ] ] } },
{ "type": "Feature", "properties": { "Id": 16, "Area": 1071.3332079199999, "x": 76.970314906699997, "y": 28.6041607678 }, "geometry": { "type": "Polygon", "coordinates": [ [ [ 76.970112249980986, 28.604080719119384 ], [ 76.970202411908474, 28.604345614481431 ], [ 76.97053219097441, 28.604258452356326 ], [ 76.970391257972523, 28.603954901559195 ], [ 76.970112249980986, 28.604080719119384 ] ] ] } },
{ "type": "Feature", "properties": { "Id": 17, "Area": 544.59674329699999, "x": 76.971552290100007, "y": 28.603407848700002 }, "geometry": { "type": "Polygon", "coordinates": [ [ [ 76.971434595359568, 28.603364060796842 ], [ 76.971484490377364, 28.603428275019798 ], [ 76.971400326562119, 28.603499213887503 ], [ 76.971503659659632, 28.603585570893184 ], [ 76.971587359904746, 28.60348980875796 ], [ 76.971639228904451, 28.603427934481434 ], [ 76.971708763850671, 28.603384903191795 ], [ 76.971728801682929, 28.603356916797022 ], [ 76.971638385137595, 28.603324806976499 ], [ 76.971612100117071, 28.603307999317 ], [ 76.971646980571663, 28.603263562090209 ], [ 76.971602072567563, 28.603234610318665 ], [ 76.971534986601625, 28.603292885902523 ], [ 76.971475188173414, 28.603335775501627 ], [ 76.971434595359568, 28.603364060796842 ] ] ] } },
{ "type": "Feature", "properties": { "Id": 18, "Area": 3401.9334049499998, "x": 76.967526830699995, "y": 28.6010377492 }, "geometry": { "type": "Polygon", "coordinates": [ [ [ 76.967163511867952, 28.601265317933226 ], [ 76.967582978052206, 28.601252616118973 ], [ 76.967886307763536, 28.601241598925842 ], [ 76.967893960192299, 28.600847935924868 ], [ 76.967897028685485, 28.60081151263249 ], [ 76.967413876938849, 28.600825139619491 ], [ 76.967162996777603, 28.600835394640661 ], [ 76.967163511867952, 28.601265317933226 ] ] ] } },
{ "type": "Feature", "properties": { "Id": 19, "Area": 2797.6138823199999, "x": 76.966369710799995, "y": 28.599357471699999 }, "geometry": { "type": "Polygon", "coordinates": [ [ [ 76.96568407594917, 28.599458338081376 ], [ 76.966347289390839, 28.599455334566652 ], [ 76.966830681588661, 28.599454936750242 ], [ 76.966995517507996, 28.599452545228587 ], [ 76.967010122402286, 28.599230753560484 ], [ 76.966347403137476, 28.59926021039681 ], [ 76.966096711139286, 28.599280382075072 ], [ 76.965793201961205, 28.599281476189446 ], [ 76.96566576732009, 28.599280016792012 ], [ 76.96568407594917, 28.599458338081376 ] ] ] } },
{ "type": "Feature", "properties": { "Id": 20, "Area": 1437.3236631699999, "x": 76.973297109900003, "y": 28.606816829 }, "geometry": { "type": "Polygon", "coordinates": [ [ [ 76.973040121677641, 28.606734985663138 ], [ 76.973174943123055, 28.607000422287829 ], [ 76.973488650786464, 28.606993945230759 ], [ 76.973487922992234, 28.606839246326189 ], [ 76.973488837310384, 28.606772383228947 ], [ 76.973470277959819, 28.606705803654926 ], [ 76.973440471575273, 28.606616467896057 ], [ 76.973252511784509, 28.606634484228408 ], [ 76.973190691322358, 28.606685044020473 ], [ 76.973078497993484, 28.606703867141832 ], [ 76.973040121677641, 28.606734985663138 ] ] ] } },
{ "type": "Feature", "properties": { "Id": 21, "Area": 76.987581160999994, "x": 76.972399045200007, "y": 28.607135547399999 }, "geometry": { "type": "Polygon", "coordinates": [ [ [ 76.972348737658294, 28.607095662187742 ], [ 76.972378853901716, 28.607187142443635 ], [ 76.972454451435979, 28.607178879896029 ], [ 76.972441767437587, 28.607151608302033 ], [ 76.97241061099804, 28.607076855649364 ], [ 76.972348737658294, 28.607095662187742 ] ] ] } },
{ "type": "Feature", "properties": { "Id": 22, "Area": 598.95953128400004, "x": 76.965108413899998, "y": 28.6056985156 }, "geometry": { "type": "Polygon", "coordinates": [ [ [ 76.964939545975795, 28.605783553822992 ], [ 76.96527221994144, 28.605778730978283 ], [ 76.965279972605416, 28.605613881139504 ], [ 76.964941889835643, 28.605618782391304 ], [ 76.964939545975795, 28.605783553822992 ] ] ] } },
{ "type": "Feature", "properties": { "Id": 23, "Area": 112.18660430200001, "x": 76.966860214099995, "y": 28.6081136265 }, "geometry": { "type": "Polygon", "coordinates": [ [ [ 76.966829892648292, 28.608178392575478 ], [ 76.966901297385917, 28.608177356422619 ], [ 76.966903276616762, 28.608051267856212 ], [ 76.966806048950943, 28.608060318704187 ], [ 76.966829892648292, 28.608178392575478 ] ] ] } },
{ "type": "Feature", "properties": { "Id": 24, "Area": 447.29032105200002, "x": 76.984867515900007, "y": 28.6258196404 }, "geometry": { "type": "Polygon", "coordinates": [ [ [ 76.984740943441437, 28.625897757994061 ], [ 76.985005073835097, 28.625899618496227 ], [ 76.985002594360452, 28.625767866070188 ], [ 76.984937634921877, 28.625766907771457 ], [ 76.984932588028059, 28.625728782069697 ], [ 76.984740089471003, 28.625737332008644 ], [ 76.984740943441437, 28.625897757994061 ] ] ] } },
{ "type": "Feature", "properties": { "Id": 25, "Area": 225.403676652, "x": 77.008157139100007, "y": 28.6256050561 }, "geometry": { "type": "Polygon", "coordinates": [ [ [ 77.008086601559413, 28.625680397787335 ], [ 77.008227267043537, 28.625678312890091 ], [ 77.00822659549037, 28.625529345396469 ], [ 77.008088094286222, 28.625531398209048 ], [ 77.008086601559413, 28.625680397787335 ] ] ] } },
{ "type": "Feature", "properties": { "Id": 26, "Area": 542.26226120700005, "x": 77.002455149900001, "y": 28.6310289623 }, "geometry": { "type": "Polygon", "coordinates": [ [ [ 77.002372147532043, 28.631162592524689 ], [ 77.002548271355849, 28.631159989168172 ], [ 77.002554427808306, 28.630892022390668 ], [ 77.002341270808358, 28.630918322871135 ], [ 77.002372147532043, 28.631162592524689 ] ] ] } },
{ "type": "Feature", "properties": { "Id": 0, "Area": 7007.9875263800004, "x": 76.998275117399999, "y": 28.613117490400001 }, "geometry": { "type": "Polygon", "coordinates": [ [ [ 76.997101688180408, 28.613142685677374 ], [ 76.997185853243892, 28.613158157707428 ], [ 76.997286247146889, 28.613173390516785 ], [ 76.997437941982966, 28.613183092225114 ], [ 76.997657527992274, 28.613206117891817 ], [ 76.997936710123085, 28.613233039583925 ], [ 76.998080516599416, 28.613254794212178 ], [ 76.998186320290074, 28.61326994658846 ], [ 76.998348789303478, 28.613277100943019 ], [ 76.998725389858024, 28.613304971982622 ], [ 76.998966569493476, 28.613325289572966 ], [ 76.999337805884863, 28.613355625486065 ], [ 76.999339108905545, 28.613281594694783 ], [ 76.99934735064177, 28.613145387320074 ], [ 76.999347704074012, 28.613021233665098 ], [ 76.999253081438397, 28.613025017015087 ], [ 76.999163506669902, 28.613009626076305 ], [ 76.999087681963587, 28.613005969609123 ], [ 76.998982194926612, 28.613007525554057 ], [ 76.998798268790878, 28.613010238287576 ], [ 76.998616731013158, 28.612996203255921 ], [ 76.998408235700495, 28.61298734042483 ], [ 76.998156508849547, 28.612981502138073 ], [ 76.998069864975733, 28.612978004611776 ], [ 76.997931739592559, 28.612970491034972 ], [ 76.997785499829789, 28.612963096929708 ], [ 76.997720223253523, 28.612944959376378 ], [ 76.99757632689716, 28.612918430728843 ], [ 76.997486933098642, 28.612912585887177 ], [ 76.997367425162722, 28.612888085031216 ], [ 76.997299489069434, 28.612872373937588 ], [ 76.997185481140789, 28.6128525668063 ], [ 76.997137342152641, 28.613025174163564 ], [ 76.997101688180408, 28.613142685677374 ] ] ] } },
{ "type": "Feature", "properties": { "Id": 0, "Area": 914.92757259699999, "x": 76.993801736199998, "y": 28.619263542700001 }, "geometry": { "type": "Polygon", "coordinates": [ [ [ 76.99365723794665, 28.619402012847441 ], [ 76.993948247578302, 28.619409668417983 ], [ 76.993952978222495, 28.619123102123368 ], [ 76.993645232504008, 28.619124645785181 ], [ 76.99365723794665, 28.619402012847441 ] ] ] } },
{ "type": "Feature", "properties": { "Id": 0, "Area": 2922.8722843, "x": 77.002155444400003, "y": 28.623751187500002 }, "geometry": { "type": "Polygon", "coordinates": [ [ [ 77.001884738451082, 28.623973448557152 ], [ 77.002182296353325, 28.623969051879627 ], [ 77.002428093069511, 28.623981833342221 ], [ 77.002502482532449, 28.623980733935532 ], [ 77.002449768391344, 28.623751719574159 ], [ 77.002428616818605, 28.623617438869331 ], [ 77.00240815058352, 28.623519258427308 ], [ 77.001820538527951, 28.623531223935988 ], [ 77.001884738451082, 28.623973448557152 ] ] ] } }
]
}
